2018-04-10-20:14:07.996 ▶ ERROR 013 ▶ HOST NOT FOUND:  RIG 2 192.168.1.92
2018-04-10-20:14:21.276 ▶ ERROR 017 ▶ HOST NOT FOUND:  RIG 3 192.168.1.93
2018-04-10-20:14:34.556 ▶ ERROR 01b ▶ HOST NOT FOUND:  RIG 4 192.168.1.94
2018-04-10-20:14:47.836 ▶ ERROR 01f ▶ HOST NOT FOUND:  RIG 5 192.168.1.95
2018-04-10-20:15:01.116 ▶ ERROR 023 ▶ HOST NOT FOUND:  RIG 6 192.168.1.96
2018-04-10-20:15:14.396 ▶ ERROR 027 ▶ HOST NOT FOUND:  RIG 7 192.168.1.97
2018-04-10-20:15:34.579 ▶ ERROR 02b ▶ HOST NOT FOUND:  RIG 8 192.168.1.91
2018-04-10-20:32:33.916 ▶ ERROR 035 ▶ HOST NOT FOUND:  RIG 2 192.168.1.92
2018-04-10-20:32:47.116 ▶ ERROR 039 ▶ HOST NOT FOUND:  RIG 3 192.168.1.93
2018-04-10-20:33:00.396 ▶ ERROR 03d ▶ HOST NOT FOUND:  RIG 4 192.168.1.94
2018-04-10-20:33:13.596 ▶ ERROR 041 ▶ HOST NOT FOUND:  RIG 5 192.168.1.95
2018-04-10-20:33:26.796 ▶ ERROR 045 ▶ HOST NOT FOUND:  RIG 6 192.168.1.96
2018-04-10-20:33:39.996 ▶ ERROR 049 ▶ HOST NOT FOUND:  RIG 7 192.168.1.97
2018-04-10-20:34:00.116 ▶ ERROR 04d ▶ HOST NOT FOUND:  RIG 8 192.168.1.91
2018-04-10-20:49:14.751 ▶ ERROR 054 ▶ HOST NOT FOUND:  RIG 1 192.168.1.90
2018-04-10-20:49:28.076 ▶ ERROR 058 ▶ HOST NOT FOUND:  RIG 2 192.168.1.92
2018-04-10-20:49:41.356 ▶ ERROR 05c ▶ HOST NOT FOUND:  RIG 3 192.168.1.93
2018-04-10-20:49:54.636 ▶ ERROR 060 ▶ HOST NOT FOUND:  RIG 4 192.168.1.94
2018-04-10-20:50:07.916 ▶ ERROR 064 ▶ HOST NOT FOUND:  RIG 5 192.168.1.95
2018-04-10-20:50:21.196 ▶ ERROR 068 ▶ HOST NOT FOUND:  RIG 6 192.168.1.96
2018-04-10-20:50:34.397 ▶ ERROR 06c ▶ HOST NOT FOUND:  RIG 7 192.168.1.97
2018-04-10-20:50:54.516 ▶ ERROR 070 ▶ HOST NOT FOUND:  RIG 8 192.168.1.91
2018-04-10-21:05:47.836 ▶ ERROR 077 ▶ HOST NOT FOUND:  RIG 1 192.168.1.90
2018-04-10-21:06:01.116 ▶ ERROR 07b ▶ HOST NOT FOUND:  RIG 2 192.168.1.92
2018-04-10-21:06:14.316 ▶ ERROR 07f ▶ HOST NOT FOUND:  RIG 3 192.168.1.93
2018-04-10-21:06:27.596 ▶ ERROR 083 ▶ HOST NOT FOUND:  RIG 4 192.168.1.94
2018-04-10-21:06:40.876 ▶ ERROR 087 ▶ HOST NOT FOUND:  RIG 5 192.168.1.95
2018-04-10-21:06:54.156 ▶ ERROR 08b ▶ HOST NOT FOUND:  RIG 6 192.168.1.96
2018-04-10-21:07:07.356 ▶ ERROR 08f ▶ HOST NOT FOUND:  RIG 7 192.168.1.97
2018-04-10-21:07:27.476 ▶ ERROR 093 ▶ HOST NOT FOUND:  RIG 8 192.168.1.91
2018-04-10-21:22:27.837 ▶ ERROR 09a ▶ HOST NOT FOUND:  RIG 1 192.168.1.90
2018-04-10-21:22:41.116 ▶ ERROR 09e ▶ HOST NOT FOUND:  RIG 2 192.168.1.92
2018-04-10-21:22:54.396 ▶ ERROR 0a2 ▶ HOST NOT FOUND:  RIG 3 192.168.1.93
2018-04-10-21:23:07.596 ▶ ERROR 0a6 ▶ HOST NOT FOUND:  RIG 4 192.168.1.94
2018-04-10-21:23:20.876 ▶ ERROR 0aa ▶ HOST NOT FOUND:  RIG 5 192.168.1.95
2018-04-10-21:23:34.156 ▶ ERROR 0ae ▶ HOST NOT FOUND:  RIG 6 192.168.1.96
2018-04-10-21:23:47.436 ▶ ERROR 0b2 ▶ HOST NOT FOUND:  RIG 7 192.168.1.97
2018-04-10-21:24:07.556 ▶ ERROR 0b6 ▶ HOST NOT FOUND:  RIG 8 192.168.1.91
2018-04-10-21:39:07.836 ▶ ERROR 0bd ▶ HOST NOT FOUND:  RIG 1 192.168.1.90
2018-04-10-21:39:21.116 ▶ ERROR 0c1 ▶ HOST NOT FOUND:  RIG 2 192.168.1.92
2018-04-10-21:39:34.396 ▶ ERROR 0c5 ▶ HOST NOT FOUND:  RIG 3 192.168.1.93
2018-04-10-21:39:47.676 ▶ ERROR 0c9 ▶ HOST NOT FOUND:  RIG 4 192.168.1.94
2018-04-10-21:40:00.876 ▶ ERROR 0cd ▶ HOST NOT FOUND:  RIG 5 192.168.1.95
2018-04-10-21:40:14.076 ▶ ERROR 0d1 ▶ HOST NOT FOUND:  RIG 6 192.168.1.96
2018-04-10-21:40:27.356 ▶ ERROR 0d5 ▶ HOST NOT FOUND:  RIG 7 192.168.1.97
2018-04-10-21:40:47.477 ▶ ERROR 0d9 ▶ HOST NOT FOUND:  RIG 8 192.168.1.91
2018-04-10-21:55:47.836 ▶ ERROR 0e0 ▶ HOST NOT FOUND:  RIG 1 192.168.1.90
2018-04-10-21:56:01.116 ▶ ERROR 0e4 ▶ HOST NOT FOUND:  RIG 2 192.168.1.92
2018-04-10-21:56:14.396 ▶ ERROR 0e8 ▶ HOST NOT FOUND:  RIG 3 192.168.1.93
2018-04-10-21:56:27.676 ▶ ERROR 0ec ▶ HOST NOT FOUND:  RIG 4 192.168.1.94
2018-04-10-21:56:40.956 ▶ ERROR 0f0 ▶ HOST NOT FOUND:  RIG 5 192.168.1.95
2018-04-10-21:56:54.236 ▶ ERROR 0f4 ▶ HOST NOT FOUND:  RIG 6 192.168.1.96
2018-04-10-21:57:07.516 ▶ ERROR 0f8 ▶ HOST NOT FOUND:  RIG 7 192.168.1.97
2018-04-10-21:57:27.643 ▶ ERROR 0fc ▶ HOST NOT FOUND:  RIG 8 192.168.1.91
2018-04-10-22:12:27.836 ▶ ERROR 103 ▶ HOST NOT FOUND:  RIG 1 192.168.1.90
2018-04-10-22:12:41.116 ▶ ERROR 107 ▶ HOST NOT FOUND:  RIG 2 192.168.1.92
2018-04-10-22:12:54.316 ▶ ERROR 10b ▶ HOST NOT FOUND:  RIG 3 192.168.1.93
2018-04-10-22:13:07.516 ▶ ERROR 10f ▶ HOST NOT FOUND:  RIG 4 192.168.1.94
2018-04-10-22:13:20.796 ▶ ERROR 113 ▶ HOST NOT FOUND:  RIG 5 192.168.1.95
2018-04-10-22:13:34.076 ▶ ERROR 117 ▶ HOST NOT FOUND:  RIG 6 192.168.1.96
2018-04-10-22:13:47.356 ▶ ERROR 11b ▶ HOST NOT FOUND:  RIG 7 192.168.1.97
2018-04-10-22:14:07.476 ▶ ERROR 11f ▶ HOST NOT FOUND:  RIG 8 192.168.1.91
2018-04-10-22:29:07.836 ▶ ERROR 126 ▶ HOST NOT FOUND:  RIG 1 192.168.1.90
2018-04-10-22:29:21.116 ▶ ERROR 12a ▶ HOST NOT FOUND:  RIG 2 192.168.1.92
2018-04-10-22:29:34.396 ▶ ERROR 12e ▶ HOST NOT FOUND:  RIG 3 192.168.1.93
2018-04-10-22:29:47.676 ▶ ERROR 132 ▶ HOST NOT FOUND:  RIG 4 192.168.1.94
2018-04-10-22:30:00.956 ▶ ERROR 136 ▶ HOST NOT FOUND:  RIG 5 192.168.1.95
2018-04-10-22:30:14.236 ▶ ERROR 13a ▶ HOST NOT FOUND:  RIG 6 192.168.1.96
2018-04-10-22:30:27.516 ▶ ERROR 13e ▶ HOST NOT FOUND:  RIG 7 192.168.1.97
2018-04-10-22:30:47.644 ▶ ERROR 142 ▶ HOST NOT FOUND:  RIG 8 192.168.1.91
2018-04-10-22:45:47.836 ▶ ERROR 149 ▶ HOST NOT FOUND:  RIG 1 192.168.1.90
2018-04-10-22:46:01.116 ▶ ERROR 14d ▶ HOST NOT FOUND:  RIG 2 192.168.1.92
2018-04-10-22:46:14.396 ▶ ERROR 151 ▶ HOST NOT FOUND:  RIG 3 192.168.1.93
2018-04-10-22:46:27.676 ▶ ERROR 155 ▶ HOST NOT FOUND:  RIG 4 192.168.1.94
2018-04-10-22:46:40.956 ▶ ERROR 159 ▶ HOST NOT FOUND:  RIG 5 192.168.1.95
2018-04-10-22:46:54.236 ▶ ERROR 15d ▶ HOST NOT FOUND:  RIG 6 192.168.1.96
2018-04-10-22:47:07.516 ▶ ERROR 161 ▶ HOST NOT FOUND:  RIG 7 192.168.1.97
2018-04-10-22:47:27.636 ▶ ERROR 165 ▶ HOST NOT FOUND:  RIG 8 192.168.1.91
2018-04-10-23:02:27.836 ▶ ERROR 16c ▶ HOST NOT FOUND:  RIG 1 192.168.1.90
2018-04-10-23:02:41.036 ▶ ERROR 170 ▶ HOST NOT FOUND:  RIG 2 192.168.1.92
2018-04-10-23:02:54.317 ▶ ERROR 174 ▶ HOST NOT FOUND:  RIG 3 192.168.1.93
2018-04-10-23:03:07.596 ▶ ERROR 178 ▶ HOST NOT FOUND:  RIG 4 192.168.1.94
2018-04-10-23:03:20.876 ▶ ERROR 17c ▶ HOST NOT FOUND:  RIG 5 192.168.1.95
2018-04-10-23:03:34.076 ▶ ERROR 180 ▶ HOST NOT FOUND:  RIG 6 192.168.1.96
2018-04-10-23:03:47.356 ▶ ERROR 184 ▶ HOST NOT FOUND:  RIG 7 192.168.1.97
2018-04-10-23:04:07.477 ▶ ERROR 188 ▶ HOST NOT FOUND:  RIG 8 192.168.1.91
2018-04-10-23:19:07.836 ▶ ERROR 18f ▶ HOST NOT FOUND:  RIG 1 192.168.1.90
2018-04-10-23:19:21.116 ▶ ERROR 193 ▶ HOST NOT FOUND:  RIG 2 192.168.1.92
2018-04-10-23:19:34.316 ▶ ERROR 197 ▶ HOST NOT FOUND:  RIG 3 192.168.1.93
2018-04-10-23:19:47.596 ▶ ERROR 19b ▶ HOST NOT FOUND:  RIG 4 192.168.1.94
2018-04-10-23:20:00.876 ▶ ERROR 19f ▶ HOST NOT FOUND:  RIG 5 192.168.1.95
2018-04-10-23:20:14.156 ▶ ERROR 1a3 ▶ HOST NOT FOUND:  RIG 6 192.168.1.96
2018-04-10-23:20:27.436 ▶ ERROR 1a7 ▶ HOST NOT FOUND:  RIG 7 192.168.1.97
2018-04-10-23:20:47.557 ▶ ERROR 1ab ▶ HOST NOT FOUND:  RIG 8 192.168.1.91
2018-04-10-23:35:47.836 ▶ ERROR 1b2 ▶ HOST NOT FOUND:  RIG 1 192.168.1.90
2018-04-10-23:36:01.116 ▶ ERROR 1b6 ▶ HOST NOT FOUND:  RIG 2 192.168.1.92
2018-04-10-23:36:14.397 ▶ ERROR 1ba ▶ HOST NOT FOUND:  RIG 3 192.168.1.93
2018-04-10-23:36:27.676 ▶ ERROR 1be ▶ HOST NOT FOUND:  RIG 4 192.168.1.94
2018-04-10-23:36:40.956 ▶ ERROR 1c2 ▶ HOST NOT FOUND:  RIG 5 192.168.1.95
2018-04-10-23:36:54.236 ▶ ERROR 1c6 ▶ HOST NOT FOUND:  RIG 6 192.168.1.96
2018-04-10-23:37:07.516 ▶ ERROR 1ca ▶ HOST NOT FOUND:  RIG 7 192.168.1.97
2018-04-10-23:37:27.637 ▶ ERROR 1ce ▶ HOST NOT FOUND:  RIG 8 192.168.1.91
2018-04-10-23:52:27.836 ▶ ERROR 1d5 ▶ HOST NOT FOUND:  RIG 1 192.168.1.90
2018-04-10-23:52:41.117 ▶ ERROR 1d9 ▶ HOST NOT FOUND:  RIG 2 192.168.1.92
2018-04-10-23:52:54.396 ▶ ERROR 1dd ▶ HOST NOT FOUND:  RIG 3 192.168.1.93
2018-04-10-23:53:07.676 ▶ ERROR 1e1 ▶ HOST NOT FOUND:  RIG 4 192.168.1.94
2018-04-10-23:53:20.956 ▶ ERROR 1e5 ▶ HOST NOT FOUND:  RIG 5 192.168.1.95
2018-04-10-23:53:34.236 ▶ ERROR 1e9 ▶ HOST NOT FOUND:  RIG 6 192.168.1.96
2018-04-10-23:53:47.517 ▶ ERROR 1ed ▶ HOST NOT FOUND:  RIG 7 192.168.1.97
2018-04-10-23:54:07.637 ▶ ERROR 1f1 ▶ HOST NOT FOUND:  RIG 8 192.168.1.91
2018-04-11-00:09:07.836 ▶ ERROR 1f8 ▶ HOST NOT FOUND:  RIG 1 192.168.1.90
2018-04-11-00:09:21.036 ▶ ERROR 1fc ▶ HOST NOT FOUND:  RIG 2 192.168.1.92
2018-04-11-00:09:34.316 ▶ ERROR 200 ▶ HOST NOT FOUND:  RIG 3 192.168.1.93
2018-04-11-00:09:47.516 ▶ ERROR 204 ▶ HOST NOT FOUND:  RIG 4 192.168.1.94
2018-04-11-00:10:00.795 ▶ ERROR 208 ▶ HOST NOT FOUND:  RIG 5 192.168.1.95
2018-04-11-00:10:13.996 ▶ ERROR 20c ▶ HOST NOT FOUND:  RIG 6 192.168.1.96
2018-04-11-00:10:27.276 ▶ ERROR 210 ▶ HOST NOT FOUND:  RIG 7 192.168.1.97
2018-04-11-00:10:47.397 ▶ ERROR 214 ▶ HOST NOT FOUND:  RIG 8 192.168.1.91
