2018-04-11-00:24:15.676 ▶ ERROR 011 ▶ HOST NOT FOUND:  RIG 1 192.168.1.90
2018-04-11-00:24:28.956 ▶ ERROR 015 ▶ HOST NOT FOUND:  RIG 2 192.168.1.92
2018-04-11-00:24:42.236 ▶ ERROR 019 ▶ HOST NOT FOUND:  RIG 3 192.168.1.93
2018-04-11-00:24:55.516 ▶ ERROR 01d ▶ HOST NOT FOUND:  RIG 4 192.168.1.94
2018-04-11-00:25:08.796 ▶ ERROR 021 ▶ HOST NOT FOUND:  RIG 5 192.168.1.95
2018-04-11-00:25:22.076 ▶ ERROR 025 ▶ HOST NOT FOUND:  RIG 6 192.168.1.96
2018-04-11-00:25:48.220 ▶ ERROR 02b ▶ HOST NOT FOUND:  RIG 8 192.168.1.91
2018-04-11-00:42:41.436 ▶ ERROR 033 ▶ HOST NOT FOUND:  RIG 1 192.168.1.90
2018-04-11-00:42:54.636 ▶ ERROR 037 ▶ HOST NOT FOUND:  RIG 2 192.168.1.92
2018-04-11-00:43:07.916 ▶ ERROR 03b ▶ HOST NOT FOUND:  RIG 3 192.168.1.93
2018-04-11-00:43:21.197 ▶ ERROR 03f ▶ HOST NOT FOUND:  RIG 4 192.168.1.94
2018-04-11-00:43:34.476 ▶ ERROR 043 ▶ HOST NOT FOUND:  RIG 5 192.168.1.95
2018-04-11-00:43:47.676 ▶ ERROR 047 ▶ HOST NOT FOUND:  RIG 6 192.168.1.96
2018-04-11-00:44:13.820 ▶ ERROR 04d ▶ HOST NOT FOUND:  RIG 8 192.168.1.91
2018-04-11-00:59:21.436 ▶ ERROR 054 ▶ HOST NOT FOUND:  RIG 1 192.168.1.90
2018-04-11-00:59:34.636 ▶ ERROR 058 ▶ HOST NOT FOUND:  RIG 2 192.168.1.92
2018-04-11-00:59:47.836 ▶ ERROR 05c ▶ HOST NOT FOUND:  RIG 3 192.168.1.93
2018-04-11-01:00:01.036 ▶ ERROR 060 ▶ HOST NOT FOUND:  RIG 4 192.168.1.94
2018-04-11-01:00:14.316 ▶ ERROR 064 ▶ HOST NOT FOUND:  RIG 5 192.168.1.95
2018-04-11-01:00:27.596 ▶ ERROR 068 ▶ HOST NOT FOUND:  RIG 6 192.168.1.96
2018-04-11-01:00:53.754 ▶ ERROR 06e ▶ HOST NOT FOUND:  RIG 8 192.168.1.91
2018-04-11-01:16:01.436 ▶ ERROR 075 ▶ HOST NOT FOUND:  RIG 1 192.168.1.90
2018-04-11-01:16:14.716 ▶ ERROR 079 ▶ HOST NOT FOUND:  RIG 2 192.168.1.92
2018-04-11-01:16:27.996 ▶ ERROR 07d ▶ HOST NOT FOUND:  RIG 3 192.168.1.93
2018-04-11-01:16:41.276 ▶ ERROR 081 ▶ HOST NOT FOUND:  RIG 4 192.168.1.94
2018-04-11-01:16:54.556 ▶ ERROR 085 ▶ HOST NOT FOUND:  RIG 5 192.168.1.95
2018-04-11-01:17:07.837 ▶ ERROR 089 ▶ HOST NOT FOUND:  RIG 6 192.168.1.96
2018-04-11-01:17:33.981 ▶ ERROR 08f ▶ HOST NOT FOUND:  RIG 8 192.168.1.91
2018-04-11-01:32:41.437 ▶ ERROR 096 ▶ HOST NOT FOUND:  RIG 1 192.168.1.90
2018-04-11-01:32:54.716 ▶ ERROR 09a ▶ HOST NOT FOUND:  RIG 2 192.168.1.92
2018-04-11-01:33:07.997 ▶ ERROR 09e ▶ HOST NOT FOUND:  RIG 3 192.168.1.93
2018-04-11-01:33:21.276 ▶ ERROR 0a2 ▶ HOST NOT FOUND:  RIG 4 192.168.1.94
2018-04-11-01:33:34.556 ▶ ERROR 0a6 ▶ HOST NOT FOUND:  RIG 5 192.168.1.95
2018-04-11-01:33:47.836 ▶ ERROR 0aa ▶ HOST NOT FOUND:  RIG 6 192.168.1.96
2018-04-11-01:34:13.981 ▶ ERROR 0b0 ▶ HOST NOT FOUND:  RIG 8 192.168.1.91
2018-04-11-01:49:21.437 ▶ ERROR 0b7 ▶ HOST NOT FOUND:  RIG 1 192.168.1.90
2018-04-11-01:49:34.716 ▶ ERROR 0bb ▶ HOST NOT FOUND:  RIG 2 192.168.1.92
2018-04-11-01:49:47.996 ▶ ERROR 0bf ▶ HOST NOT FOUND:  RIG 3 192.168.1.93
2018-04-11-01:50:01.276 ▶ ERROR 0c3 ▶ HOST NOT FOUND:  RIG 4 192.168.1.94
2018-04-11-01:50:14.557 ▶ ERROR 0c7 ▶ HOST NOT FOUND:  RIG 5 192.168.1.95
2018-04-11-01:50:27.836 ▶ ERROR 0cb ▶ HOST NOT FOUND:  RIG 6 192.168.1.96
2018-04-11-01:50:53.981 ▶ ERROR 0d1 ▶ HOST NOT FOUND:  RIG 8 192.168.1.91
