{
    "WaitSeconds": 1000,
    "StartupCheck" : true,
    "Log" : true,
    "RemoteNotify" : false,
    "TgBotActivate" : false,
    "TgAPIKey" : "ACCESS-TOKEN",
    "TgAdminUserName" : "USERNAME",
    "Pushover": false,
    "PushoverToken": "ACCESS-TOKEN",
    "PushoverUser": "USER-TOKEN",
    "Miners": [
        {   "Name": "RIG 1", "Pin": "36", "Ip": "192.168.1.90", "Info": "Rig1 GTX1070's"  },    
        {   "Name": "RIG 2", "Pin": "32", "Ip": "192.168.1.92", "Info": "Rig2 GTX1050ti's"   },    
        {   "Name": "RIG 3", "Pin": "31", "Ip": "192.168.1.93", "Info": "Rig3 RX580's"   },    
        {   "Name": "RIG 4", "Pin": "29", "Ip": "192.168.1.94", "Info": "Rig4 RX580's"   },    
        {   "Name": "RIG 5", "Pin": "35", "Ip": "192.168.1.95", "Info": "Rig5 RX580's"   },    
        {   "Name": "RIG 6", "Pin": "38", "Ip": "192.168.1.96", "Info": "Rig6 RX580's"   },    
        {   "Name": "RIG 7", "Pin": "33", "Ip": "192.168.1.104", "Info": "Rig7 RX580's"   },    
        {   "Name": "RIG 8", "Pin": "37", "Ip": "192.168.1.91", "Info": "Rig9 RX580's"   }        
    ]
}
